<?xml version="1.0" encoding="utf-8"?>
<!-- Generator: Adobe Illustrator 15.1.0, SVG Export Plug-In . SVG Version: 6.00 Build 0)  -->
<!DOCTYPE svg PUBLIC "-//W3C//DTD SVG 1.0//EN" "http://www.w3.org/TR/2001/REC-SVG-20010904/DTD/svg10.dtd">
<svg version="1.0" id="Layer_1" xmlns="http://www.w3.org/2000/svg" xmlns:xlink="http://www.w3.org/1999/xlink" x="0px" y="0px"
	 width="34.239px" height="26.901px" viewBox="0 0 34.239 26.901" enable-background="new 0 0 34.239 26.901" xml:space="preserve">
<g>
	<path d="M4.637,8.131c2.076,0.292,4.151,0.584,6.229,0.877c0.716,0.1,1.431,0.201,2.146,0.302c0.291,0.041,0.536,0.05,0.802-0.104
		c0.232-0.137,0.406-0.362,0.478-0.622c0.136-0.493-0.164-1.2-0.728-1.28c-2.075-0.292-4.15-0.585-6.228-0.877
		C6.62,6.326,5.905,6.225,5.19,6.124c-0.291-0.04-0.537-0.05-0.802,0.104C4.156,6.366,3.981,6.591,3.91,6.851
		C3.775,7.344,4.075,8.051,4.637,8.131z"/>
	<path d="M13.563,12.998c-2.075-0.293-4.15-0.585-6.228-0.877c-0.716-0.1-1.431-0.201-2.146-0.303
		c-0.291-0.04-0.537-0.05-0.802,0.105c-0.232,0.136-0.407,0.362-0.479,0.622c-0.135,0.493,0.165,1.2,0.727,1.279
		c2.076,0.293,4.151,0.585,6.229,0.877c0.716,0.102,1.431,0.201,2.146,0.303c0.291,0.041,0.536,0.05,0.802-0.105
		c0.232-0.136,0.406-0.361,0.478-0.621C14.427,13.784,14.127,13.077,13.563,12.998z"/>
	<path d="M13.563,18.692c-2.075-0.292-4.15-0.584-6.228-0.877c-0.716-0.1-1.431-0.2-2.146-0.302c-0.291-0.04-0.537-0.05-0.802,0.104
		C4.156,17.755,3.981,17.98,3.91,18.24c-0.135,0.493,0.165,1.2,0.727,1.28c2.076,0.292,4.151,0.585,6.229,0.877
		c0.716,0.1,1.431,0.201,2.146,0.302c0.291,0.04,0.536,0.05,0.802-0.104c0.232-0.137,0.406-0.362,0.478-0.622
		C14.427,19.479,14.127,18.772,13.563,18.692z"/>
	<path d="M33.199,0.006c-1.504,0.189-3.007,0.38-4.509,0.569c-2.688,0.338-5.373,0.678-8.059,1.017
		C19.461,1.74,18.29,1.888,17.12,2.035l0,0c-1.504-0.19-3.007-0.38-4.51-0.569C9.925,1.127,7.238,0.788,4.552,0.449
		C3.381,0.302,2.21,0.154,1.04,0.006C0.476-0.065,0,0.532,0,1.046c0,1.174,0,2.347,0,3.52c0,2.589,0,5.177,0,7.764
		c0,2.606,0,5.212,0,7.817c0,1.225,0,2.451,0,3.677c0,0.001,0,0.001,0,0.002c0,0.275,0.11,0.542,0.305,0.736
		c0.214,0.213,0.447,0.268,0.735,0.305c1.503,0.189,3.006,0.379,4.509,0.569c2.687,0.338,5.372,0.678,8.059,1.017
		c1.051,0.132,2.103,0.265,3.152,0.398c0.112,0.041,0.233,0.06,0.358,0.045c0,0,0,0,0.002,0l0,0
		c0.125,0.016,0.247-0.004,0.359-0.047c1.383-0.173,2.766-0.348,4.15-0.522c2.685-0.339,5.371-0.679,8.057-1.017
		c1.171-0.147,2.342-0.297,3.513-0.443c0.288-0.037,0.521-0.092,0.735-0.305c0.193-0.194,0.305-0.461,0.305-0.736
		c0-1.172,0-2.347,0-3.52c0-2.587,0-5.176,0-7.764c0-2.605,0-5.211,0-7.816c0-1.226,0-2.451,0-3.678c0,0,0-0.001,0-0.002
		C34.239,0.532,33.764-0.065,33.199,0.006z M12.61,24.245c-2.686-0.338-5.372-0.678-8.059-1.017
		c-0.824-0.104-1.648-0.207-2.471-0.313c0-0.869,0-1.739,0-2.61c0-2.587,0-5.176,0-7.764c0-2.605,0-5.211,0-7.816
		c0-0.836,0-1.672,0-2.508C3.237,2.363,4.392,2.51,5.549,2.655c2.687,0.339,5.372,0.679,8.059,1.017
		c0.823,0.104,1.647,0.209,2.472,0.313c0,0.87,0,1.74,0,2.61c0,2.589,0,5.177,0,7.765c0,2.604,0,5.21,0,7.816
		c0,0.835,0,1.672,0,2.508C14.923,24.537,13.767,24.392,12.61,24.245z M28.69,23.354c-2.688,0.339-5.373,0.679-8.059,1.017
		c-0.823,0.104-1.647,0.209-2.472,0.313c0-0.783,0-1.566,0-2.348l0,0c0-2.589,0-5.177,0-7.765l0,0c0-2.605,0-5.21,0-7.816l0,0
		c0-0.924,0-1.848,0-2.771c1.156-0.146,2.313-0.292,3.47-0.438c2.685-0.338,5.371-0.677,8.057-1.017
		c0.825-0.104,1.649-0.207,2.473-0.312c0,0.782,0,1.565,0,2.348c0,2.589,0,5.177,0,7.764c0,2.605,0,5.212,0,7.817
		c0,0.923,0,1.847,0,2.77C31.002,23.063,29.846,23.209,28.69,23.354z"/>
	<path d="M20.425,9.205c0.266,0.154,0.512,0.146,0.803,0.104c2.076-0.292,4.152-0.584,6.229-0.877
		c0.715-0.101,1.431-0.202,2.146-0.302c0.562-0.08,0.861-0.787,0.727-1.28c-0.072-0.26-0.246-0.484-0.479-0.622
		c-0.265-0.154-0.511-0.145-0.802-0.104c-2.075,0.292-4.152,0.584-6.228,0.877c-0.716,0.101-1.432,0.202-2.146,0.302
		c-0.563,0.08-0.862,0.787-0.727,1.28C20.02,8.843,20.193,9.068,20.425,9.205z"/>
	<path d="M29.851,11.924c-0.265-0.155-0.511-0.146-0.802-0.105c-2.075,0.293-4.152,0.585-6.228,0.877
		c-0.716,0.102-1.432,0.202-2.146,0.303c-0.563,0.079-0.862,0.786-0.727,1.28c0.071,0.26,0.245,0.485,0.477,0.621
		c0.266,0.155,0.512,0.146,0.803,0.105c2.076-0.293,4.152-0.585,6.229-0.877c0.715-0.102,1.431-0.202,2.146-0.303
		c0.562-0.079,0.861-0.786,0.727-1.279C30.257,12.286,30.083,12.062,29.851,11.924z"/>
	<path d="M29.851,17.618c-0.265-0.154-0.511-0.145-0.802-0.104c-2.075,0.292-4.152,0.585-6.228,0.877
		c-0.716,0.101-1.432,0.202-2.146,0.302c-0.563,0.08-0.862,0.787-0.727,1.28c0.071,0.26,0.245,0.485,0.477,0.622
		c0.266,0.154,0.512,0.146,0.803,0.104c2.076-0.292,4.152-0.584,6.229-0.876c0.715-0.102,1.431-0.203,2.146-0.303
		c0.562-0.08,0.861-0.787,0.727-1.28C30.257,17.98,30.083,17.755,29.851,17.618z"/>
</g>
</svg>
