<?xml version="1.0" encoding="utf-8"?>
<!-- Generator: Adobe Illustrator 15.1.0, SVG Export Plug-In . SVG Version: 6.00 Build 0)  -->
<!DOCTYPE svg PUBLIC "-//W3C//DTD SVG 1.1//EN" "http://www.w3.org/Graphics/SVG/1.1/DTD/svg11.dtd">
<svg version="1.1" id="Layer_1" xmlns="http://www.w3.org/2000/svg" xmlns:xlink="http://www.w3.org/1999/xlink" x="0px" y="0px"
	 width="19.092px" height="19.092px" viewBox="0 0 19.092 19.092" enable-background="new 0 0 19.092 19.092" xml:space="preserve">
<polygon fill="#26306A" points="19.092,1.414 17.678,0 9.546,8.132 1.414,0 0,1.414 8.132,9.546 0,17.678 1.414,19.092 9.546,10.96 
	17.678,19.092 19.092,17.678 10.96,9.546 "/>
</svg>
