<?xml version="1.0" encoding="utf-8"?>
<!-- Generator: Adobe Illustrator 15.1.0, SVG Export Plug-In . SVG Version: 6.00 Build 0)  -->
<!DOCTYPE svg PUBLIC "-//W3C//DTD SVG 1.1//EN" "http://www.w3.org/Graphics/SVG/1.1/DTD/svg11.dtd">
<svg version="1.1" id="Layer_1" xmlns="http://www.w3.org/2000/svg" xmlns:xlink="http://www.w3.org/1999/xlink" x="0px" y="0px"
	 width="25.472px" height="25.439px" viewBox="0 0 25.472 25.439" enable-background="new 0 0 25.472 25.439" xml:space="preserve">
<path fill="#26306A" d="M25.187,23.779l-6.048-6.016h-0.032c3.837-4.58,3.234-11.401-1.345-15.238
	C13.184-1.311,6.362-0.709,2.526,3.87s-3.235,11.4,1.344,15.237c4.019,3.367,9.875,3.367,13.893,0h0.033l6.016,6.047
	c0.38,0.381,0.996,0.381,1.376,0C25.567,24.775,25.567,24.159,25.187,23.779z M10.819,19.683c-4.913,0-8.896-3.983-8.896-8.896
	s3.983-8.896,8.896-8.896s8.896,3.983,8.896,8.896S15.732,19.683,10.819,19.683L10.819,19.683z"/>
</svg>
