<?xml version="1.0" encoding="utf-8"?>
<!-- Generator: Adobe Illustrator 15.1.0, SVG Export Plug-In . SVG Version: 6.00 Build 0)  -->
<!DOCTYPE svg PUBLIC "-//W3C//DTD SVG 1.0//EN" "http://www.w3.org/TR/2001/REC-SVG-20010904/DTD/svg10.dtd">
<svg version="1.0" id="Layer_1" xmlns="http://www.w3.org/2000/svg" xmlns:xlink="http://www.w3.org/1999/xlink" x="0px" y="0px"
	 width="453.016px" height="31.305px" viewBox="0 0 453.016 31.305" enable-background="new 0 0 453.016 31.305"
	 xml:space="preserve">
<g>
	<path fill="#70706F" d="M212.847,28.352l7.025-5.965c0.698-0.58,1.289-1.107,1.775-1.582c0.484-0.479,0.879-0.926,1.183-1.356
		c0.301-0.425,0.517-0.841,0.652-1.247c0.137-0.408,0.207-0.844,0.207-1.311c0-1.009-0.317-1.789-0.951-2.341
		c-0.63-0.553-1.412-0.832-2.342-0.832c-0.934,0-1.757,0.254-2.465,0.757c-0.711,0.509-1.461,1.274-2.256,2.303l-2.535-1.981
		c0.484-0.68,0.98-1.287,1.486-1.829c0.504-0.537,1.052-0.989,1.643-1.348c0.592-0.365,1.246-0.646,1.955-0.84
		c0.707-0.197,1.518-0.294,2.433-0.294c0.99,0,1.897,0.149,2.723,0.438c0.828,0.293,1.535,0.703,2.13,1.236
		c0.591,0.537,1.053,1.176,1.383,1.927c0.331,0.746,0.496,1.575,0.496,2.488v0.058c0,0.798-0.106,1.522-0.319,2.172
		c-0.215,0.65-0.542,1.28-0.979,1.879c-0.437,0.603-0.99,1.209-1.659,1.82c-0.672,0.611-1.455,1.286-2.35,2.023l-4.195,3.502h9.706
		v3.143h-14.745V28.352z"/>
	<path fill="#70706F" d="M239.887,31.174c-1.574,0-3.01-0.278-4.313-0.83c-1.301-0.551-2.418-1.309-3.354-2.259
		c-0.928-0.953-1.658-2.063-2.182-3.337s-0.785-2.625-0.785-4.064v-0.059c0-1.434,0.262-2.793,0.785-4.067
		c0.523-1.268,1.262-2.385,2.215-3.348c0.951-0.959,2.078-1.723,3.381-2.29c1.301-0.559,2.736-0.844,4.311-0.844
		s3.01,0.279,4.313,0.833s2.42,1.307,3.352,2.259s1.658,2.062,2.184,3.333c0.525,1.276,0.787,2.626,0.787,4.065v0.059
		c0,1.439-0.262,2.793-0.787,4.064c-0.525,1.274-1.262,2.389-2.215,3.354c-0.951,0.961-2.08,1.722-3.379,2.283
		C242.899,30.891,241.461,31.174,239.887,31.174 M239.946,27.882c1.008,0,1.93-0.188,2.771-0.567
		c0.838-0.382,1.561-0.895,2.162-1.546c0.6-0.652,1.068-1.411,1.406-2.286c0.338-0.877,0.506-1.807,0.506-2.799v-0.059
		c0-0.992-0.168-1.926-0.506-2.813c-0.338-0.88-0.813-1.652-1.424-2.301c-0.611-0.65-1.34-1.171-2.188-1.559
		c-0.854-0.388-1.779-0.58-2.787-0.58c-1.004,0-1.928,0.185-2.77,0.565c-0.842,0.378-1.563,0.894-2.162,1.547
		c-0.598,0.652-1.068,1.408-1.408,2.285c-0.338,0.877-0.51,1.805-0.51,2.797v0.059c0,0.989,0.172,1.928,0.51,2.815
		c0.34,0.882,0.813,1.647,1.42,2.3c0.613,0.648,1.344,1.171,2.193,1.559C238.008,27.688,238.938,27.882,239.946,27.882"/>
	<path fill="#70706F" d="M251.979,28.352l7.023-5.965c0.695-0.58,1.289-1.107,1.777-1.582c0.482-0.479,0.877-0.926,1.18-1.356
		c0.299-0.425,0.518-0.841,0.654-1.247c0.137-0.408,0.203-0.844,0.203-1.311c0-1.009-0.314-1.789-0.949-2.341
		c-0.629-0.553-1.41-0.832-2.34-0.832c-0.936,0-1.756,0.254-2.463,0.757c-0.707,0.509-1.463,1.274-2.258,2.303l-2.537-1.981
		c0.488-0.68,0.982-1.287,1.486-1.829c0.506-0.537,1.051-0.989,1.648-1.348c0.592-0.365,1.242-0.646,1.951-0.84
		c0.705-0.197,1.516-0.294,2.432-0.294c0.992,0,1.898,0.149,2.723,0.438c0.828,0.293,1.539,0.703,2.131,1.236
		c0.59,0.537,1.053,1.176,1.383,1.927c0.33,0.746,0.496,1.575,0.496,2.488v0.058c0,0.798-0.105,1.522-0.322,2.172
		c-0.215,0.65-0.539,1.28-0.977,1.879c-0.436,0.603-0.99,1.209-1.658,1.82c-0.674,0.611-1.455,1.286-2.35,2.023l-4.195,3.502h9.704
		v3.143h-14.743V28.352z"/>
	<path fill="#70706F" d="M279.018,31.174c-1.572,0-3.01-0.278-4.313-0.83c-1.301-0.551-2.418-1.309-3.35-2.259
		c-0.934-0.953-1.662-2.063-2.184-3.337c-0.527-1.273-0.787-2.625-0.787-4.064v-0.059c0-1.434,0.26-2.793,0.787-4.067
		c0.521-1.268,1.257-2.385,2.213-3.348c0.949-0.959,2.076-1.723,3.377-2.29c1.303-0.559,2.74-0.844,4.316-0.844
		c1.57,0,3.008,0.279,4.309,0.833c1.303,0.553,2.42,1.307,3.352,2.259s1.662,2.062,2.186,3.333c0.525,1.276,0.787,2.626,0.787,4.065
		v0.059c0,1.439-0.262,2.793-0.787,4.064c-0.523,1.274-1.264,2.389-2.215,3.354c-0.953,0.961-2.078,1.722-3.383,2.283
		C282.032,30.891,280.59,31.174,279.018,31.174 M279.079,27.882c1.002,0,1.926-0.188,2.767-0.567
		c0.845-0.382,1.563-0.895,2.165-1.546c0.598-0.652,1.063-1.411,1.406-2.286c0.338-0.877,0.506-1.807,0.506-2.799v-0.059
		c0-0.992-0.168-1.926-0.506-2.813c-0.344-0.88-0.814-1.652-1.42-2.301c-0.613-0.65-1.342-1.171-2.193-1.559
		c-0.85-0.388-1.779-0.58-2.785-0.58c-1.008,0-1.932,0.185-2.771,0.565c-0.84,0.378-1.563,0.894-2.164,1.547
		c-0.598,0.652-1.064,1.408-1.406,2.285c-0.338,0.877-0.504,1.805-0.504,2.797v0.059c0,0.989,0.166,1.928,0.504,2.815
		c0.342,0.882,0.814,1.647,1.421,2.3c0.61,0.648,1.339,1.171,2.192,1.559C277.139,27.688,278.067,27.882,279.079,27.882"/>
	<path fill="#70706F" d="M215.054,3.817c-0.102,0-0.23,0-0.368-0.013v1.229c0.255,0.015,0.52,0.056,0.742,0.102v0.683h-2.582V5.134
		c0.223-0.045,0.484-0.087,0.743-0.102V0.883c-0.259-0.019-0.52-0.056-0.743-0.099V0.095h0.666c0.271,0,1.013-0.033,1.608-0.033
		c1.399,0,2.17,0.654,2.17,1.772C217.291,2.947,216.447,3.817,215.054,3.817 M215.072,0.966c-0.137,0-0.257,0-0.386,0.004v1.904
		c0.112,0.017,0.223,0.027,0.322,0.027c0.67-0.01,1.14-0.382,1.14-0.997C216.148,1.324,215.824,0.966,215.072,0.966 M220.383,5.909
		c-1.744,0-2.599-1.11-2.599-2.878c0-1.894,1.263-3.031,2.796-3.031c1.525,0,2.602,0.92,2.602,2.875
		C223.182,4.768,221.937,5.909,220.383,5.909 M220.479,0.996c-0.789,0-1.518,0.63-1.518,1.912c0,1.218,0.475,2.006,1.503,2.006
		c0.743,0,1.539-0.578,1.539-1.952C222.004,1.694,221.465,0.996,220.479,0.996 M226.961,5.817l-1.399-2.359h-0.151v1.575
		c0.164,0.015,0.346,0.039,0.519,0.092v0.693h-2.358V5.134c0.22-0.045,0.486-0.087,0.738-0.102V0.883
		c-0.252-0.019-0.519-0.056-0.738-0.099V0.095h0.663c0.221,0,1.016-0.033,1.72-0.033c1.264,0,2.079,0.439,2.079,1.607
		c0,0.804-0.545,1.387-1.347,1.556c0.1,0.136,0.2,0.282,0.287,0.414l0.883,1.383c0.162,0.025,0.361,0.056,0.563,0.092v0.703H226.961
		z M225.834,0.966c-0.151,0-0.312,0.004-0.424,0.021v1.654c0.078,0.005,0.224,0.016,0.389,0.016c0.672,0,1.07-0.338,1.07-0.872
		C226.869,1.234,226.538,0.966,225.834,0.966 M232.323,1.709c-0.037-0.264-0.082-0.491-0.096-0.708h-0.887v4.031
		c0.256,0.015,0.518,0.056,0.742,0.102v0.683h-2.58V5.134c0.22-0.045,0.484-0.087,0.74-0.102V1.001h-0.877
		c-0.014,0.217-0.059,0.444-0.096,0.708h-0.818V0.095h4.686v1.614H232.323z M238.706,0.883v2.74c0,1.516-0.838,2.286-2.367,2.286
		c-1.807,0-2.209-0.981-2.209-2.073V0.883c-0.189-0.019-0.375-0.046-0.535-0.091V0.095h2.246v0.697
		c-0.193,0.051-0.418,0.073-0.613,0.091v2.885c0,0.72,0.232,1.229,1.182,1.229c0.846,0,1.211-0.356,1.211-1.331V0.883
		c-0.209-0.019-0.422-0.041-0.609-0.091V0.095h2.221v0.697C239.067,0.837,238.893,0.865,238.706,0.883 M244.389,3.609v1.942
		c-0.564,0.227-1.277,0.352-1.975,0.352c-1.803,0-2.873-1.068-2.873-2.812c0-1.825,1.221-3.078,3.172-3.078
		c0.533,0,1.068,0.076,1.594,0.212v1.536h-0.85c-0.049-0.248-0.074-0.464-0.1-0.69c-0.23-0.064-0.477-0.084-0.705-0.084
		c-1.111,0-1.914,0.707-1.914,1.998c0,1.216,0.66,1.929,1.822,1.929c0.271,0,0.51-0.034,0.727-0.106V3.617
		c-0.252-0.02-0.518-0.062-0.727-0.109v-0.69h2.307v0.705C244.715,3.555,244.551,3.58,244.389,3.609 M248.372,5.817V5.134
		c0.18-0.034,0.406-0.077,0.601-0.092l-0.243-0.679h-2.088l-0.238,0.679c0.197,0.015,0.426,0.059,0.605,0.092v0.683h-2.152V5.134
		c0.135-0.045,0.303-0.077,0.447-0.087l1.746-4.952h1.346l1.779,4.952c0.146,0.01,0.316,0.042,0.453,0.087v0.683H248.372z
		 M247.946,2.097c-0.107-0.313-0.189-0.583-0.262-0.898h-0.006c-0.072,0.287-0.154,0.621-0.271,0.942l-0.492,1.366h1.543
		L247.946,2.097z M250.885,5.817V5.134c0.223-0.045,0.484-0.087,0.738-0.102V0.883c-0.254-0.019-0.516-0.056-0.738-0.099V0.095
		h2.578v0.689c-0.221,0.042-0.482,0.08-0.738,0.099v4.031h1.096c0.016-0.208,0.059-0.452,0.1-0.707h0.813v1.61H250.885z"/>
	<path fill="#70706F" d="M195.688,0.243c-5.045,1.998-8.184,7.263-8.184,15.372V27.92c0,0,1.032-7.91,8.184-10.189V0.243z"/>
	<path fill="#70706F" d="M198.13,18.946c-2.931,0.588-7.228,2.937-8.492,6.246c6.295-7.643,19.144-0.256,19.714-14.629
		c0.177-4.554,0.195-10.156,0.195-10.156C202.84,0.783,198.13,2.57,198.13,2.57V18.946z"/>
	<path fill="#70706F" d="M197.313,23.098c0,0-6.833,0.553-7.413,4.452c-0.458,3.049,7.413,3.129,7.413,3.129V23.098z"/>
	<path fill="#70706F" d="M0,23.649V7.632c0-4.46,3.302-7.146,7.842-7.146c4.255,0,7.269,2.521,7.269,6.567v3.263h-4.171V7.549
		c0-1.859-1.114-3.098-3.098-3.098c-2.228,0-3.175,1.407-3.175,3.344v15.563c0,2.188,1.195,3.388,3.22,3.388
		c1.938,0,3.053-1.281,3.053-3.058V20.92h4.171v3.018c0,4.208-3.014,6.852-7.269,6.852C3.221,30.79,0,28.352,0,23.649"/>
	<polygon fill="#70706F" points="17.463,0.946 30.34,0.946 30.34,4.826 22.044,4.826 22.044,13.162 28.689,13.162 28.689,17.083 
		22.044,17.083 22.044,26.412 30.385,26.412 30.385,30.375 17.463,30.375 	"/>
	<polygon fill="#70706F" points="32.611,0.946 37.402,0.946 44.294,19.192 44.376,19.192 44.376,0.946 48.464,0.946 48.464,30.375 
		44.253,30.375 36.782,10.271 36.699,10.271 36.699,30.375 32.611,30.375 	"/>
	<polygon fill="#70706F" points="55.688,4.866 50.073,4.866 50.073,0.946 65.84,0.946 65.84,4.866 60.308,4.866 60.308,30.375 
		55.688,30.375 	"/>
	<path fill="#70706F" d="M67.493,0.946h7.474c4.787,0,7.47,2.845,7.47,8.417c0,4.211-1.444,6.771-3.715,7.721l4.047,13.292h-4.789
		l-3.43-12.261h-2.432v12.261h-4.625V0.946z M74.677,14.649c2.021,0,3.136-1.57,3.136-4.911c0-2.854-0.865-4.913-3.218-4.913h-2.477
		v9.824H74.677z"/>
	<path fill="#70706F" d="M84.585,23.274V8.002c0-4.911,3.384-7.509,7.883-7.509c4.379,0,7.844,2.265,7.844,7.262v15.396
		c0,5.117-3.465,7.639-7.883,7.639C87.76,30.79,84.585,28.352,84.585,23.274 M95.646,23.36V7.672c0-1.942-1.197-3.181-3.218-3.181
		c-2.107,0-3.142,1.407-3.142,3.263V23.36c0,1.858,1.034,3.341,3.181,3.341C94.655,26.701,95.646,25.218,95.646,23.36"/>
	<path fill="#70706F" d="M103.822,14.474h13.984V0.486h-13.984V14.474z M115.093,13.285h-8.209v-1.882l2.904-3.306
		c0.975-1.102,1.822-1.824,1.822-2.684V5.236c0-0.462-0.174-0.91-0.926-0.91c-0.749,0-0.926,0.578-0.926,1.23v0.351h-3.225V5.22
		c0-2.333,1.851-3.542,4.373-3.542c2.715,0,4.074,1.545,4.074,3.575c0,1.771-1.837,3.368-2.971,4.52l-0.707,0.718v0.028h3.789
		V13.285z"/>
	<path fill="#70706F" d="M103.822,30.792h13.984V16.804h-13.984V30.792z M115.093,29.602h-8.209v-1.881l2.904-3.305
		c0.975-1.104,1.822-1.82,1.822-2.684v-0.176c0-0.466-0.174-0.912-0.926-0.912c-0.749,0-0.926,0.576-0.926,1.229v0.35h-3.225v-0.683
		c0-2.334,1.851-3.545,4.373-3.545c2.715,0,4.074,1.544,4.074,3.578c0,1.768-1.837,3.363-2.971,4.517l-0.707,0.717v0.032h3.789
		V29.602z"/>
	<path fill="#70706F" d="M120.138,14.474h13.987V0.486h-13.987V14.474z M131.747,9.708c0,2.682-2.538,3.656-4.584,3.656
		c-2.092,0-4.646-0.862-4.646-3.656V5.298c0-2.727,2.412-3.706,4.583-3.706c2.139,0,4.646,0.979,4.646,3.788V9.708z"/>
	<path fill="#70706F" d="M127.133,4.343c-0.653,0-1.054,0.381-1.054,0.847v4.518c0,0.463,0.35,0.91,1.071,0.91
		c0.732,0,1.034-0.512,1.034-0.956V5.173C128.185,4.711,127.771,4.343,127.133,4.343"/>
	<path fill="#70706F" d="M127.133,20.662c-0.653,0-1.054,0.384-1.054,0.845v4.519c0,0.464,0.35,0.912,1.071,0.912
		c0.732,0,1.034-0.511,1.034-0.956v-4.49C128.185,21.03,127.771,20.662,127.133,20.662"/>
	<path fill="#70706F" d="M120.138,30.792h13.987V16.803h-13.987V30.792z M131.747,26.025c0,2.685-2.538,3.658-4.584,3.658
		c-2.092,0-4.646-0.86-4.646-3.658v-4.407c0-2.727,2.412-3.703,4.583-3.703c2.139,0,4.646,0.977,4.646,3.784V26.025z"/>
	<path fill="#70706F" d="M385.993,5.506h0.74v1.977c0,0.313,0.008,0.515,0.027,0.611c0.033,0.146,0.105,0.269,0.225,0.359
		c0.115,0.092,0.281,0.134,0.486,0.134c0.207,0,0.367-0.039,0.471-0.127c0.109-0.085,0.17-0.191,0.195-0.315
		c0.018-0.123,0.031-0.331,0.031-0.621V5.506h0.736v1.918c0,0.438-0.02,0.748-0.059,0.927c-0.042,0.179-0.117,0.334-0.223,0.457
		c-0.104,0.127-0.248,0.225-0.428,0.298c-0.18,0.074-0.41,0.112-0.703,0.112c-0.348,0-0.611-0.041-0.791-0.122
		c-0.184-0.079-0.324-0.186-0.428-0.314c-0.105-0.129-0.177-0.265-0.207-0.405c-0.049-0.206-0.074-0.516-0.074-0.926V5.506z"/>
	<polygon fill="#70706F" points="389.688,9.157 389.688,5.506 390.407,5.506 391.901,7.942 391.901,5.506 392.586,5.506 
		392.586,9.157 391.844,9.157 390.375,6.774 390.375,9.157 	"/>
	<rect x="393.342" y="5.506" fill="#70706F" width="0.738" height="3.65"/>
	<path fill="#70706F" d="M398.073,9.157h-0.801l-0.322-0.828h-1.455l-0.303,0.828h-0.783l1.424-3.65h0.781L398.073,9.157z
		 M395.641,5.305h-0.318c-0.002-0.041-0.002-0.069-0.002-0.091c0-0.172,0.043-0.307,0.127-0.401
		c0.086-0.097,0.193-0.144,0.324-0.144c0.061,0,0.115,0.007,0.166,0.021c0.049,0.013,0.139,0.048,0.271,0.106
		c0.131,0.059,0.236,0.092,0.309,0.092c0.053,0,0.098-0.023,0.135-0.054c0.033-0.032,0.057-0.087,0.066-0.168h0.322
		c0,0.227-0.039,0.387-0.125,0.484c-0.08,0.096-0.188,0.143-0.316,0.143c-0.055,0-0.111-0.005-0.168-0.017
		c-0.035-0.012-0.131-0.043-0.285-0.102c-0.15-0.06-0.26-0.086-0.332-0.086c-0.055,0-0.098,0.014-0.123,0.049
		C395.661,5.168,395.645,5.227,395.641,5.305 M396.715,7.713l-0.502-1.355l-0.496,1.355H396.715z"/>
	<path fill="#70706F" d="M398.313,7.356c0-0.374,0.055-0.687,0.168-0.937c0.084-0.187,0.193-0.358,0.342-0.503
		c0.143-0.147,0.299-0.257,0.471-0.327c0.225-0.098,0.486-0.145,0.789-0.145c0.535,0,0.965,0.166,1.287,0.501
		c0.32,0.334,0.486,0.795,0.486,1.393c0,0.586-0.16,1.05-0.482,1.38c-0.318,0.334-0.748,0.5-1.283,0.5
		c-0.543,0-0.975-0.165-1.297-0.497C398.475,8.391,398.313,7.933,398.313,7.356 M399.073,7.333c0,0.411,0.096,0.723,0.287,0.937
		c0.191,0.213,0.434,0.321,0.729,0.321c0.289,0,0.533-0.108,0.725-0.321C401,8.06,401.09,7.743,401.09,7.316
		c0-0.417-0.088-0.729-0.273-0.934c-0.182-0.203-0.428-0.311-0.729-0.311c-0.309,0-0.551,0.108-0.734,0.316
		C399.167,6.593,399.073,6.907,399.073,7.333"/>
	<polygon fill="#70706F" points="403.844,9.157 403.844,5.506 406.553,5.506 406.553,6.121 404.584,6.121 404.584,6.935 
		406.42,6.935 406.42,7.549 404.584,7.549 404.584,8.538 406.625,8.538 406.625,9.157 	"/>
	<path fill="#70706F" d="M407.245,5.506h0.736v1.977c0,0.313,0.008,0.515,0.025,0.611c0.033,0.146,0.109,0.269,0.225,0.359
		c0.121,0.092,0.282,0.134,0.488,0.134c0.209,0,0.365-0.039,0.473-0.127c0.107-0.085,0.172-0.191,0.191-0.315
		c0.021-0.123,0.031-0.331,0.031-0.621V5.506h0.738v1.918c0,0.438-0.02,0.748-0.059,0.927c-0.043,0.179-0.117,0.334-0.221,0.457
		c-0.105,0.127-0.25,0.225-0.428,0.298c-0.182,0.074-0.414,0.112-0.705,0.112c-0.348,0-0.611-0.041-0.793-0.122
		c-0.182-0.079-0.322-0.186-0.426-0.314c-0.105-0.129-0.176-0.265-0.209-0.405c-0.045-0.206-0.068-0.516-0.068-0.926V5.506z"/>
	<path fill="#70706F" d="M410.934,9.157v-3.65h1.551c0.391,0,0.672,0.033,0.85,0.1c0.178,0.064,0.32,0.18,0.424,0.347
		c0.107,0.167,0.162,0.36,0.162,0.577c0,0.274-0.082,0.497-0.246,0.677c-0.158,0.179-0.398,0.292-0.721,0.339
		c0.162,0.093,0.291,0.194,0.395,0.305c0.107,0.11,0.244,0.31,0.418,0.595l0.447,0.71h-0.879l-0.533-0.793
		c-0.191-0.286-0.32-0.464-0.389-0.538c-0.07-0.075-0.145-0.125-0.223-0.153c-0.08-0.026-0.203-0.041-0.371-0.041h-0.148v1.525
		H410.934z M411.67,7.05h0.545c0.352,0,0.572-0.017,0.664-0.046c0.084-0.03,0.154-0.08,0.205-0.155
		c0.051-0.07,0.072-0.161,0.072-0.272c0-0.122-0.027-0.221-0.096-0.297c-0.066-0.077-0.158-0.121-0.279-0.143
		c-0.059-0.007-0.24-0.017-0.535-0.017h-0.576V7.05z"/>
	<path fill="#70706F" d="M414.465,7.356c0-0.374,0.057-0.687,0.164-0.937c0.086-0.187,0.197-0.358,0.34-0.503
		c0.146-0.147,0.303-0.257,0.473-0.327c0.227-0.098,0.488-0.145,0.789-0.145c0.535,0,0.965,0.166,1.289,0.501
		c0.322,0.334,0.484,0.795,0.484,1.393c0,0.586-0.162,1.05-0.482,1.38c-0.318,0.334-0.748,0.5-1.283,0.5
		c-0.541,0-0.975-0.165-1.295-0.497C414.624,8.391,414.465,7.933,414.465,7.356 M415.221,7.333c0,0.411,0.098,0.723,0.287,0.937
		c0.193,0.213,0.434,0.321,0.729,0.321c0.293,0,0.535-0.108,0.723-0.321c0.189-0.209,0.279-0.526,0.279-0.953
		c0-0.417-0.088-0.729-0.273-0.934c-0.182-0.203-0.426-0.311-0.729-0.311c-0.305,0-0.549,0.108-0.732,0.316
		C415.317,6.593,415.221,6.907,415.221,7.333"/>
	<path fill="#70706F" d="M418.579,9.157v-3.65h1.184c0.447,0,0.74,0.019,0.875,0.056c0.211,0.052,0.385,0.173,0.527,0.356
		c0.145,0.18,0.211,0.418,0.211,0.707c0,0.226-0.043,0.415-0.121,0.569c-0.082,0.147-0.186,0.27-0.313,0.36
		c-0.123,0.086-0.252,0.146-0.381,0.175c-0.176,0.032-0.43,0.05-0.764,0.05h-0.482v1.376H418.579z M419.315,6.124v1.036h0.406
		c0.287,0,0.484-0.02,0.58-0.058c0.1-0.036,0.176-0.097,0.232-0.177c0.057-0.081,0.082-0.177,0.082-0.289
		c0-0.129-0.039-0.237-0.117-0.326c-0.076-0.087-0.174-0.144-0.293-0.162c-0.09-0.015-0.266-0.024-0.529-0.024H419.315z"/>
	<polygon fill="#70706F" points="421.981,9.157 421.981,5.506 424.688,5.506 424.688,6.121 422.719,6.121 422.719,6.935 
		424.549,6.935 424.549,7.549 422.719,7.549 422.719,8.538 424.756,8.538 424.756,9.157 	"/>
	<rect x="425.362" y="5.506" fill="#70706F" width="0.736" height="3.65"/>
	<path fill="#70706F" d="M430.088,9.157h-0.799l-0.322-0.828h-1.455l-0.303,0.828h-0.785l1.426-3.65h0.775L430.088,9.157z
		 M428.731,7.713l-0.502-1.355l-0.494,1.355H428.731z"/>
	<polygon fill="#70706F" points="386.045,21.237 386.045,17.585 388.51,17.585 388.51,18.018 386.528,18.018 386.528,19.147 
		388.243,19.147 388.243,19.579 386.528,19.579 386.528,21.237 	"/>
	<path fill="#70706F" d="M390.811,21.237v-0.388c-0.207,0.296-0.484,0.447-0.836,0.447c-0.158,0-0.305-0.028-0.441-0.087
		c-0.135-0.064-0.232-0.137-0.301-0.225c-0.064-0.096-0.109-0.203-0.139-0.334c-0.02-0.092-0.023-0.229-0.023-0.42v-1.64h0.447
		v1.468c0,0.232,0.01,0.393,0.025,0.475c0.031,0.117,0.092,0.208,0.182,0.277c0.092,0.063,0.201,0.101,0.338,0.101
		c0.135,0,0.26-0.037,0.379-0.104c0.117-0.071,0.201-0.163,0.25-0.28c0.047-0.119,0.074-0.293,0.074-0.517v-1.42h0.445v2.646
		H390.811z"/>
	<path fill="#70706F" d="M391.913,21.237v-2.646h0.404v0.376c0.193-0.287,0.477-0.435,0.84-0.435c0.162,0,0.309,0.03,0.441,0.089
		c0.133,0.055,0.236,0.132,0.301,0.226c0.066,0.091,0.113,0.201,0.143,0.327c0.013,0.084,0.021,0.231,0.021,0.439v1.623h-0.449
		v-1.609c0-0.182-0.016-0.318-0.055-0.408c-0.033-0.092-0.094-0.164-0.18-0.215c-0.092-0.051-0.195-0.082-0.316-0.082
		c-0.188,0-0.355,0.058-0.492,0.184c-0.139,0.119-0.209,0.35-0.209,0.69v1.44H391.913z"/>
	<path fill="#70706F" d="M396.467,21.237v-0.334c-0.17,0.262-0.414,0.396-0.74,0.396c-0.214,0-0.404-0.06-0.582-0.175
		c-0.176-0.117-0.314-0.277-0.41-0.488c-0.098-0.211-0.146-0.444-0.146-0.717c0-0.265,0.045-0.502,0.131-0.717
		c0.092-0.219,0.221-0.383,0.395-0.5c0.18-0.113,0.377-0.169,0.592-0.169c0.162,0,0.303,0.033,0.426,0.102
		c0.127,0.067,0.227,0.155,0.305,0.264v-1.313h0.447v3.651H396.467z M395.049,19.918c0,0.339,0.07,0.592,0.214,0.76
		c0.146,0.168,0.31,0.25,0.503,0.25c0.197,0,0.365-0.079,0.5-0.241c0.141-0.159,0.206-0.403,0.206-0.731
		c0-0.364-0.071-0.625-0.208-0.799c-0.139-0.168-0.313-0.254-0.516-0.254c-0.201,0-0.365,0.082-0.498,0.244
		C395.114,19.309,395.049,19.567,395.049,19.918"/>
	<path fill="#70706F" d="M397.418,19.915c0-0.49,0.135-0.85,0.412-1.086c0.227-0.195,0.502-0.296,0.83-0.296
		c0.365,0,0.658,0.118,0.891,0.36c0.229,0.237,0.344,0.566,0.344,0.986c0,0.341-0.049,0.604-0.15,0.802
		c-0.102,0.193-0.254,0.344-0.447,0.453c-0.193,0.108-0.408,0.164-0.637,0.164c-0.369,0-0.674-0.12-0.9-0.358
		C397.532,20.702,397.418,20.362,397.418,19.915 M397.881,19.915c0,0.34,0.074,0.592,0.223,0.76
		c0.146,0.172,0.334,0.254,0.557,0.254s0.406-0.082,0.555-0.254c0.146-0.168,0.221-0.427,0.221-0.775
		c0-0.326-0.074-0.572-0.221-0.742c-0.152-0.168-0.336-0.254-0.555-0.254c-0.223,0-0.41,0.082-0.557,0.254
		C397.956,19.323,397.881,19.575,397.881,19.915"/>
	<polygon fill="#70706F" points="401.907,21.237 401.907,17.585 404.545,17.585 404.545,18.018 402.388,18.018 402.388,19.136 
		404.407,19.136 404.407,19.564 402.388,19.564 402.388,20.808 404.633,20.808 404.633,21.237 	"/>
	<path fill="#70706F" d="M406.971,21.237v-0.388c-0.207,0.296-0.484,0.447-0.836,0.447c-0.158,0-0.303-0.028-0.439-0.087
		c-0.135-0.064-0.236-0.137-0.301-0.225c-0.066-0.096-0.109-0.203-0.139-0.334c-0.02-0.092-0.025-0.229-0.025-0.42v-1.64h0.447
		v1.468c0,0.232,0.01,0.393,0.027,0.475c0.029,0.117,0.086,0.208,0.18,0.277c0.092,0.063,0.203,0.101,0.338,0.101
		c0.133,0,0.26-0.037,0.381-0.104c0.115-0.071,0.199-0.163,0.25-0.28c0.047-0.119,0.072-0.293,0.072-0.517v-1.42h0.445v2.646
		H406.971z"/>
	<path fill="#70706F" d="M408.069,21.237v-2.646h0.404v0.403c0.102-0.189,0.201-0.312,0.287-0.37
		c0.084-0.062,0.182-0.092,0.285-0.092c0.15,0,0.307,0.048,0.463,0.147l-0.154,0.415c-0.111-0.067-0.219-0.099-0.33-0.099
		c-0.1,0-0.186,0.031-0.264,0.089c-0.076,0.058-0.133,0.14-0.168,0.241c-0.049,0.164-0.074,0.34-0.074,0.525v1.385H408.069z"/>
	<path fill="#70706F" d="M409.604,19.915c0-0.49,0.137-0.85,0.412-1.086c0.229-0.195,0.504-0.296,0.83-0.296
		c0.365,0,0.66,0.118,0.893,0.36c0.23,0.237,0.344,0.566,0.344,0.986c0,0.341-0.051,0.604-0.15,0.802
		c-0.102,0.193-0.253,0.344-0.447,0.453c-0.195,0.108-0.404,0.164-0.639,0.164c-0.367,0-0.672-0.12-0.896-0.358
		C409.719,20.702,409.604,20.362,409.604,19.915 M410.067,19.915c0,0.34,0.076,0.592,0.225,0.76
		c0.146,0.172,0.332,0.254,0.555,0.254c0.225,0,0.408-0.082,0.557-0.254c0.146-0.168,0.219-0.427,0.219-0.775
		c0-0.326-0.072-0.572-0.219-0.742c-0.152-0.168-0.334-0.254-0.557-0.254s-0.408,0.082-0.555,0.254
		C410.143,19.323,410.067,19.575,410.067,19.915"/>
	<path fill="#70706F" d="M412.61,22.25v-3.659h0.404v0.342c0.102-0.131,0.209-0.231,0.328-0.299
		c0.125-0.068,0.268-0.102,0.439-0.102c0.23,0,0.428,0.056,0.598,0.175c0.175,0.117,0.309,0.277,0.393,0.492
		c0.09,0.214,0.133,0.443,0.133,0.697c0,0.269-0.049,0.515-0.146,0.729c-0.098,0.217-0.238,0.383-0.424,0.5
		c-0.184,0.113-0.377,0.171-0.58,0.171c-0.152,0-0.285-0.028-0.406-0.093c-0.117-0.063-0.215-0.143-0.291-0.244v1.291H412.61z
		 M413.014,19.931c0,0.342,0.07,0.591,0.209,0.753c0.137,0.165,0.305,0.244,0.497,0.244c0.2,0,0.372-0.083,0.513-0.254
		c0.141-0.168,0.213-0.427,0.213-0.779c0-0.337-0.068-0.59-0.207-0.761c-0.137-0.164-0.305-0.248-0.496-0.248
		c-0.189,0-0.361,0.091-0.506,0.268C413.09,19.327,413.014,19.591,413.014,19.931"/>
	<path fill="#70706F" d="M417.258,20.386l0.461,0.058c-0.074,0.268-0.207,0.482-0.404,0.629c-0.197,0.147-0.449,0.224-0.76,0.224
		c-0.389,0-0.689-0.118-0.922-0.355c-0.223-0.241-0.338-0.575-0.338-1.003c0-0.445,0.115-0.791,0.342-1.035
		c0.232-0.245,0.527-0.37,0.895-0.37c0.354,0,0.641,0.121,0.865,0.363c0.223,0.238,0.336,0.579,0.336,1.016
		c0,0.024,0,0.065-0.004,0.118h-1.971c0.018,0.29,0.1,0.514,0.246,0.666c0.146,0.156,0.334,0.232,0.555,0.232
		c0.164,0,0.307-0.045,0.42-0.129C417.094,20.711,417.188,20.573,417.258,20.386 M415.782,19.662h1.48
		c-0.021-0.222-0.076-0.39-0.17-0.501c-0.146-0.176-0.33-0.258-0.557-0.258c-0.203,0-0.381,0.067-0.52,0.203
		C415.875,19.246,415.797,19.433,415.782,19.662"/>
	<path fill="#70706F" d="M420.012,21.237v-0.388c-0.203,0.296-0.484,0.447-0.838,0.447c-0.158,0-0.303-0.028-0.438-0.087
		c-0.135-0.064-0.234-0.137-0.303-0.225c-0.064-0.096-0.107-0.203-0.135-0.334c-0.018-0.092-0.027-0.229-0.027-0.42v-1.64h0.447
		v1.468c0,0.232,0.01,0.393,0.027,0.475c0.027,0.117,0.088,0.208,0.18,0.277c0.09,0.063,0.205,0.101,0.337,0.101
		c0.136,0,0.263-0.037,0.38-0.104c0.117-0.071,0.201-0.163,0.25-0.28c0.047-0.119,0.074-0.293,0.074-0.517v-1.42h0.449v2.646
		H420.012z"/>
	<path fill="#70706F" d="M387.678,27.36v-0.336c-0.168,0.263-0.412,0.395-0.736,0.395c-0.213,0-0.406-0.059-0.58-0.174
		c-0.182-0.119-0.316-0.281-0.414-0.492c-0.098-0.207-0.146-0.444-0.146-0.716c0-0.261,0.043-0.503,0.133-0.718
		c0.088-0.217,0.221-0.381,0.393-0.494c0.18-0.119,0.375-0.172,0.592-0.172c0.162,0,0.303,0.035,0.427,0.1
		c0.126,0.07,0.228,0.156,0.304,0.264v-1.309h0.446v3.652H387.678z M386.262,26.037c0,0.341,0.072,0.592,0.215,0.761
		c0.143,0.166,0.311,0.251,0.504,0.251c0.197,0,0.364-0.082,0.5-0.241c0.139-0.159,0.205-0.406,0.205-0.734
		c0-0.359-0.07-0.624-0.207-0.793c-0.139-0.172-0.313-0.258-0.516-0.258c-0.2,0-0.367,0.084-0.5,0.247
		C386.327,25.433,386.262,25.687,386.262,26.037"/>
	<path fill="#70706F" d="M390.612,26.504l0.463,0.057c-0.074,0.273-0.211,0.482-0.408,0.631s-0.449,0.224-0.756,0.224
		c-0.389,0-0.691-0.118-0.92-0.356c-0.223-0.238-0.34-0.575-0.34-1.001c0-0.446,0.117-0.792,0.344-1.036
		c0.23-0.246,0.523-0.369,0.893-0.369c0.35,0,0.641,0.119,0.865,0.361c0.227,0.24,0.336,0.577,0.336,1.016
		c0,0.026,0,0.064-0.004,0.118h-1.971c0.014,0.293,0.1,0.514,0.248,0.667c0.145,0.155,0.332,0.233,0.553,0.233
		c0.164,0,0.303-0.047,0.418-0.131C390.45,26.832,390.543,26.694,390.612,26.504 M389.137,25.78h1.479
		c-0.019-0.223-0.076-0.387-0.168-0.497c-0.146-0.175-0.332-0.261-0.559-0.261c-0.205,0-0.379,0.066-0.518,0.205
		C389.231,25.365,389.155,25.55,389.137,25.78"/>
	<path fill="#70706F" d="M393.108,27.358v-3.65h1.256c0.285,0,0.506,0.016,0.652,0.051c0.209,0.046,0.389,0.135,0.535,0.264
		c0.193,0.161,0.336,0.369,0.434,0.624c0.094,0.251,0.143,0.54,0.143,0.867c0,0.274-0.033,0.523-0.098,0.735
		c-0.066,0.211-0.148,0.392-0.25,0.533c-0.102,0.137-0.211,0.248-0.332,0.328c-0.121,0.082-0.264,0.143-0.435,0.184
		c-0.171,0.043-0.366,0.064-0.587,0.064H393.108z M393.594,26.926h0.777c0.24,0,0.432-0.023,0.566-0.068
		c0.137-0.047,0.25-0.107,0.328-0.186c0.115-0.119,0.201-0.272,0.268-0.463c0.064-0.195,0.096-0.432,0.096-0.706
		c0-0.382-0.063-0.675-0.186-0.879c-0.129-0.206-0.281-0.342-0.457-0.412c-0.131-0.052-0.34-0.075-0.627-0.075h-0.766V26.926z"/>
	<path fill="#70706F" d="M398.543,26.504l0.467,0.057c-0.074,0.273-0.209,0.482-0.408,0.631c-0.195,0.148-0.449,0.224-0.758,0.224
		c-0.385,0-0.693-0.118-0.918-0.356c-0.227-0.238-0.342-0.575-0.342-1.001c0-0.446,0.117-0.792,0.344-1.036
		c0.23-0.246,0.527-0.369,0.893-0.369c0.352,0,0.643,0.119,0.863,0.361c0.225,0.24,0.34,0.577,0.34,1.016
		c0,0.026-0.002,0.064-0.002,0.118h-1.973c0.016,0.293,0.1,0.514,0.248,0.667c0.145,0.155,0.328,0.233,0.549,0.233
		c0.17,0,0.307-0.047,0.424-0.131C398.385,26.832,398.477,26.694,398.543,26.504 M397.073,25.78h1.477
		c-0.018-0.223-0.076-0.387-0.17-0.497c-0.143-0.175-0.326-0.261-0.553-0.261c-0.207,0-0.379,0.066-0.523,0.205
		C397.167,25.365,397.09,25.55,397.073,25.78"/>
	<path fill="#70706F" d="M399.391,26.565l0.443-0.066c0.025,0.178,0.095,0.313,0.209,0.408c0.111,0.092,0.27,0.142,0.477,0.142
		c0.205,0,0.357-0.044,0.457-0.125c0.098-0.085,0.152-0.187,0.152-0.296c0-0.103-0.049-0.182-0.133-0.24
		c-0.063-0.042-0.217-0.091-0.459-0.151c-0.33-0.085-0.561-0.154-0.686-0.217c-0.127-0.062-0.221-0.145-0.287-0.253
		c-0.066-0.101-0.1-0.223-0.1-0.352c0-0.118,0.025-0.229,0.082-0.328c0.055-0.103,0.127-0.186,0.217-0.25
		c0.072-0.05,0.168-0.096,0.289-0.133c0.119-0.031,0.25-0.051,0.389-0.051c0.207,0,0.387,0.031,0.545,0.088
		c0.154,0.059,0.271,0.145,0.348,0.243c0.074,0.103,0.127,0.237,0.154,0.414l-0.436,0.056c-0.023-0.135-0.084-0.239-0.178-0.318
		c-0.096-0.075-0.227-0.113-0.402-0.113c-0.207,0-0.354,0.035-0.441,0.104c-0.09,0.066-0.133,0.147-0.133,0.234
		c0,0.059,0.018,0.113,0.055,0.159c0.039,0.048,0.094,0.089,0.174,0.118c0.041,0.018,0.176,0.057,0.395,0.113
		c0.316,0.088,0.539,0.155,0.664,0.211c0.125,0.053,0.223,0.13,0.293,0.236c0.072,0.099,0.109,0.229,0.109,0.385
		c0,0.146-0.045,0.288-0.129,0.416c-0.092,0.134-0.213,0.242-0.381,0.311c-0.162,0.071-0.348,0.106-0.557,0.106
		c-0.344,0-0.605-0.071-0.787-0.214C399.557,27.059,399.44,26.847,399.391,26.565"/>
	<path fill="#70706F" d="M403.932,26.504l0.461,0.057c-0.072,0.273-0.207,0.482-0.404,0.631c-0.199,0.148-0.451,0.224-0.76,0.224
		c-0.385,0-0.691-0.118-0.918-0.356s-0.34-0.575-0.34-1.001c0-0.446,0.115-0.792,0.342-1.036c0.232-0.246,0.529-0.369,0.895-0.369
		c0.35,0,0.643,0.119,0.865,0.361c0.223,0.24,0.334,0.577,0.334,1.016c0,0.026,0,0.064-0.002,0.118h-1.971
		c0.016,0.293,0.1,0.514,0.248,0.667c0.146,0.155,0.332,0.233,0.549,0.233c0.168,0,0.307-0.047,0.424-0.131
		C403.77,26.832,403.866,26.694,403.932,26.504 M402.459,25.78h1.475c-0.018-0.223-0.072-0.387-0.171-0.497
		c-0.14-0.175-0.325-0.261-0.552-0.261c-0.207,0-0.379,0.066-0.52,0.205C402.553,25.365,402.475,25.55,402.459,25.78"/>
	<path fill="#70706F" d="M404.956,27.36v-2.648h0.404v0.376c0.193-0.29,0.479-0.435,0.84-0.435c0.16,0,0.307,0.027,0.439,0.086
		c0.135,0.055,0.236,0.133,0.303,0.224c0.064,0.095,0.109,0.206,0.139,0.329c0.014,0.083,0.023,0.23,0.023,0.439v1.629h-0.447
		v-1.612c0-0.185-0.018-0.319-0.053-0.407c-0.037-0.093-0.098-0.164-0.184-0.219c-0.09-0.052-0.193-0.081-0.314-0.081
		c-0.191,0-0.355,0.059-0.494,0.181c-0.137,0.124-0.209,0.354-0.209,0.692v1.446H404.956z"/>
	<path fill="#70706F" d="M408.524,27.36l-1.004-2.648h0.475l0.566,1.584c0.063,0.172,0.119,0.348,0.17,0.531
		c0.039-0.138,0.096-0.305,0.166-0.502l0.588-1.613h0.459l-1,2.648H408.524z"/>
	<path fill="#70706F" d="M410.174,26.033c0-0.487,0.137-0.85,0.408-1.087c0.227-0.195,0.506-0.293,0.83-0.293
		c0.365,0,0.662,0.115,0.895,0.357c0.229,0.24,0.346,0.568,0.346,0.985c0,0.341-0.053,0.608-0.152,0.804
		c-0.104,0.195-0.252,0.347-0.449,0.456c-0.193,0.108-0.404,0.163-0.639,0.163c-0.367,0-0.668-0.121-0.893-0.358
		C410.29,26.821,410.174,26.479,410.174,26.033 M410.635,26.033c0,0.339,0.074,0.596,0.223,0.761
		c0.146,0.17,0.332,0.255,0.555,0.255c0.225,0,0.406-0.085,0.557-0.255c0.146-0.169,0.221-0.428,0.221-0.774
		c0-0.325-0.074-0.575-0.221-0.745c-0.15-0.166-0.332-0.252-0.557-0.252c-0.223,0-0.408,0.086-0.555,0.252
		C410.709,25.441,410.635,25.694,410.635,26.033"/>
	<rect x="413.167" y="23.708" fill="#70706F" width="0.449" height="3.65"/>
	<path fill="#70706F" d="M415.043,27.36l-1.006-2.648h0.475l0.568,1.584c0.063,0.172,0.117,0.348,0.172,0.531
		c0.037-0.138,0.093-0.305,0.162-0.502l0.59-1.613h0.459l-1,2.648H415.043z"/>
	<path fill="#70706F" d="M416.862,23.708h0.449v0.514h-0.449V23.708z M416.862,24.711h0.449v2.648h-0.449V24.711z"/>
	<path fill="#70706F" d="M417.991,27.36v-2.648h0.4v0.373c0.09-0.129,0.195-0.235,0.336-0.316c0.139-0.074,0.293-0.115,0.471-0.115
		c0.193,0,0.354,0.041,0.479,0.119c0.125,0.084,0.217,0.197,0.264,0.342c0.211-0.307,0.484-0.461,0.818-0.461
		c0.266,0,0.465,0.074,0.607,0.219c0.141,0.145,0.211,0.367,0.211,0.669v1.819h-0.447v-1.671c0-0.179-0.014-0.306-0.043-0.388
		c-0.031-0.077-0.082-0.143-0.158-0.189c-0.076-0.045-0.164-0.071-0.27-0.071c-0.184,0-0.338,0.062-0.463,0.184
		c-0.121,0.125-0.186,0.326-0.186,0.596v1.54h-0.447v-1.723c0-0.199-0.033-0.348-0.109-0.445c-0.072-0.104-0.191-0.151-0.359-0.151
		c-0.127,0-0.238,0.034-0.348,0.099c-0.109,0.068-0.186,0.162-0.234,0.294c-0.045,0.124-0.072,0.31-0.072,0.551v1.376H417.991z"/>
	<path fill="#70706F" d="M424.051,26.504l0.465,0.057c-0.072,0.273-0.207,0.482-0.404,0.631c-0.201,0.148-0.455,0.224-0.762,0.224
		c-0.387,0-0.691-0.118-0.921-0.356c-0.224-0.238-0.337-0.575-0.337-1.001c0-0.446,0.113-0.792,0.34-1.036
		c0.232-0.246,0.529-0.369,0.896-0.369c0.35,0,0.641,0.119,0.863,0.361c0.225,0.24,0.336,0.577,0.336,1.016
		c0,0.026,0,0.064-0.002,0.118h-1.973c0.018,0.293,0.1,0.514,0.248,0.667c0.146,0.155,0.332,0.233,0.555,0.233
		c0.164,0,0.301-0.047,0.418-0.131C423.891,26.832,423.985,26.694,424.051,26.504 M422.579,25.78h1.475
		c-0.018-0.223-0.072-0.387-0.166-0.497c-0.145-0.175-0.33-0.261-0.557-0.261c-0.205,0-0.379,0.066-0.52,0.205
		C422.672,25.365,422.594,25.55,422.579,25.78"/>
	<path fill="#70706F" d="M425.077,27.36v-2.648h0.406v0.376c0.189-0.29,0.473-0.435,0.838-0.435c0.162,0,0.305,0.027,0.439,0.086
		c0.135,0.055,0.234,0.133,0.301,0.224c0.07,0.095,0.113,0.206,0.139,0.329c0.018,0.083,0.023,0.23,0.023,0.439v1.629h-0.445v-1.612
		c0-0.185-0.02-0.319-0.053-0.407c-0.033-0.093-0.1-0.164-0.184-0.219c-0.092-0.052-0.195-0.081-0.314-0.081
		c-0.193,0-0.357,0.059-0.494,0.181c-0.139,0.124-0.209,0.354-0.209,0.692v1.446H425.077z"/>
	<path fill="#70706F" d="M428.889,26.956l0.066,0.394c-0.127,0.031-0.238,0.04-0.34,0.04c-0.162,0-0.287-0.025-0.379-0.074
		c-0.088-0.053-0.152-0.119-0.186-0.203c-0.039-0.084-0.057-0.258-0.057-0.529V25.06h-0.328v-0.349h0.328v-0.653l0.447-0.272v0.926
		h0.447v0.349h-0.447v1.544c0,0.131,0.006,0.211,0.021,0.25c0.014,0.035,0.045,0.066,0.08,0.086c0.033,0.021,0.086,0.033,0.15,0.033
		C428.743,26.973,428.809,26.966,428.889,26.956"/>
	<path fill="#70706F" d="M429.163,26.033c0-0.487,0.135-0.85,0.41-1.087c0.223-0.195,0.5-0.293,0.83-0.293
		c0.365,0,0.66,0.115,0.893,0.357c0.229,0.24,0.343,0.568,0.343,0.985c0,0.341-0.05,0.608-0.149,0.804
		c-0.105,0.195-0.254,0.347-0.449,0.456c-0.195,0.108-0.406,0.163-0.637,0.163c-0.371,0-0.672-0.121-0.896-0.358
		C429.274,26.821,429.163,26.479,429.163,26.033 M429.622,26.033c0,0.339,0.074,0.596,0.224,0.761
		c0.146,0.17,0.334,0.255,0.558,0.255c0.223,0,0.406-0.085,0.557-0.255c0.146-0.169,0.22-0.428,0.22-0.774
		c0-0.325-0.073-0.575-0.224-0.745c-0.148-0.166-0.332-0.252-0.553-0.252c-0.224,0-0.412,0.086-0.558,0.252
		C429.696,25.441,429.622,25.694,429.622,26.033"/>
	<path fill="#70706F" d="M433.643,27.36v-3.652h1.623c0.324,0,0.57,0.029,0.74,0.097c0.172,0.064,0.307,0.18,0.404,0.347
		c0.103,0.166,0.154,0.351,0.154,0.551c0,0.26-0.084,0.479-0.252,0.656c-0.168,0.176-0.428,0.291-0.775,0.336
		c0.125,0.061,0.223,0.123,0.291,0.186c0.139,0.129,0.273,0.287,0.4,0.482l0.633,0.998h-0.604l-0.486-0.762
		c-0.141-0.22-0.258-0.389-0.348-0.504c-0.09-0.117-0.176-0.197-0.246-0.242c-0.074-0.047-0.145-0.083-0.221-0.102
		c-0.055-0.01-0.143-0.012-0.27-0.012h-0.561v1.621H433.643z M434.127,25.319h1.039c0.223,0,0.395-0.027,0.516-0.071
		c0.127-0.044,0.223-0.117,0.288-0.22c0.062-0.097,0.097-0.205,0.097-0.326c0-0.172-0.063-0.313-0.189-0.424
		c-0.125-0.111-0.323-0.168-0.596-0.168h-1.154V25.319z"/>
	<path fill="#70706F" d="M439.073,26.504l0.467,0.057c-0.074,0.273-0.209,0.482-0.406,0.631s-0.451,0.224-0.76,0.224
		c-0.385,0-0.693-0.118-0.92-0.356s-0.342-0.575-0.342-1.001c0-0.446,0.119-0.792,0.346-1.036c0.229-0.246,0.527-0.369,0.893-0.369
		c0.352,0,0.645,0.119,0.863,0.361c0.225,0.24,0.34,0.577,0.34,1.016c0,0.026-0.004,0.064-0.004,0.118h-1.971
		c0.016,0.293,0.1,0.514,0.246,0.667c0.148,0.155,0.332,0.233,0.551,0.233c0.168,0,0.307-0.047,0.424-0.131
		C438.911,26.832,439.006,26.694,439.073,26.504 M437.604,25.78h1.475c-0.018-0.223-0.076-0.387-0.17-0.497
		c-0.141-0.175-0.326-0.261-0.553-0.261c-0.205,0-0.381,0.066-0.521,0.205C437.696,25.365,437.62,25.55,437.604,25.78"/>
	<path fill="#70706F" d="M440.02,27.577l0.432,0.066c0.02,0.135,0.07,0.229,0.152,0.29c0.111,0.083,0.266,0.126,0.457,0.126
		c0.209,0,0.367-0.043,0.479-0.126c0.115-0.081,0.193-0.201,0.23-0.349c0.023-0.092,0.035-0.281,0.031-0.577
		c-0.193,0.233-0.439,0.351-0.729,0.351c-0.365,0-0.648-0.134-0.846-0.396c-0.201-0.262-0.298-0.575-0.298-0.943
		c0-0.253,0.044-0.485,0.136-0.699c0.094-0.212,0.223-0.378,0.398-0.493c0.17-0.115,0.373-0.174,0.609-0.174
		c0.314,0,0.568,0.125,0.772,0.381v-0.322h0.413v2.287c0,0.41-0.041,0.703-0.127,0.873c-0.082,0.175-0.215,0.311-0.396,0.408
		c-0.182,0.1-0.408,0.151-0.672,0.151c-0.313,0-0.57-0.073-0.766-0.215S440.012,27.86,440.02,27.577 M440.387,25.987
		c0,0.35,0.066,0.604,0.209,0.76c0.139,0.156,0.309,0.24,0.514,0.24c0.209,0,0.381-0.079,0.521-0.24
		c0.139-0.155,0.207-0.405,0.207-0.744c0-0.322-0.07-0.569-0.215-0.733c-0.143-0.163-0.316-0.245-0.52-0.245
		c-0.199,0-0.365,0.082-0.506,0.242C440.458,25.428,440.387,25.67,440.387,25.987"/>
	<path fill="#70706F" d="M442.938,23.708h0.447v0.514h-0.447V23.708z M442.938,24.711h0.447v2.648h-0.447V24.711z"/>
	<path fill="#70706F" d="M443.903,26.033c0-0.487,0.135-0.85,0.406-1.087c0.227-0.195,0.506-0.293,0.832-0.293
		c0.365,0,0.662,0.115,0.891,0.357c0.23,0.24,0.348,0.568,0.348,0.985c0,0.341-0.053,0.608-0.152,0.804
		c-0.104,0.195-0.25,0.347-0.447,0.456c-0.195,0.108-0.406,0.163-0.639,0.163c-0.367,0-0.67-0.121-0.896-0.358
		C444.016,26.821,443.903,26.479,443.903,26.033 M444.362,26.033c0,0.339,0.076,0.596,0.223,0.761
		c0.146,0.17,0.332,0.255,0.557,0.255s0.408-0.085,0.555-0.255c0.148-0.169,0.221-0.428,0.221-0.774
		c0-0.325-0.072-0.575-0.221-0.745c-0.146-0.166-0.33-0.252-0.555-0.252s-0.41,0.086-0.557,0.252
		C444.438,25.441,444.362,25.694,444.362,26.033"/>
	<path fill="#70706F" d="M446.903,27.36v-2.648h0.406v0.376c0.191-0.29,0.475-0.435,0.838-0.435c0.162,0,0.309,0.027,0.441,0.086
		c0.131,0.055,0.236,0.133,0.3,0.224c0.067,0.095,0.112,0.206,0.142,0.329c0.014,0.083,0.023,0.23,0.023,0.439v1.629h-0.449v-1.612
		c0-0.185-0.016-0.319-0.053-0.407c-0.033-0.093-0.096-0.164-0.184-0.219c-0.092-0.052-0.193-0.081-0.313-0.081
		c-0.191,0-0.357,0.059-0.496,0.181c-0.139,0.124-0.207,0.354-0.207,0.692v1.446H446.903z"/>
	<path fill="#70706F" d="M451.465,27.032c-0.166,0.141-0.328,0.238-0.479,0.297c-0.156,0.059-0.318,0.09-0.494,0.09
		c-0.291,0-0.516-0.072-0.672-0.215c-0.152-0.144-0.234-0.324-0.234-0.546c0-0.13,0.033-0.246,0.092-0.353
		c0.057-0.111,0.135-0.191,0.229-0.256c0.098-0.068,0.203-0.116,0.324-0.148c0.09-0.026,0.223-0.045,0.396-0.067
		c0.365-0.044,0.631-0.097,0.801-0.155c0-0.062,0.004-0.1,0.004-0.119c0-0.178-0.041-0.309-0.131-0.385
		c-0.111-0.1-0.283-0.152-0.506-0.152c-0.213,0-0.367,0.038-0.469,0.111c-0.104,0.074-0.178,0.206-0.223,0.395l-0.439-0.061
		c0.037-0.189,0.107-0.339,0.197-0.457c0.092-0.115,0.223-0.203,0.398-0.263c0.17-0.064,0.371-0.094,0.6-0.094
		c0.225,0,0.406,0.026,0.547,0.079c0.141,0.054,0.248,0.121,0.313,0.2c0.068,0.077,0.115,0.183,0.141,0.306
		c0.012,0.078,0.021,0.213,0.021,0.414v0.597c0,0.414,0.008,0.68,0.029,0.792c0.018,0.109,0.059,0.214,0.113,0.318h-0.471
		C451.51,27.262,451.477,27.154,451.465,27.032 M451.428,26.032c-0.162,0.063-0.406,0.119-0.734,0.166
		c-0.184,0.025-0.313,0.059-0.39,0.092s-0.134,0.079-0.175,0.144c-0.045,0.065-0.061,0.138-0.061,0.215
		c0,0.12,0.041,0.217,0.135,0.294c0.088,0.083,0.221,0.123,0.398,0.123c0.17,0,0.322-0.037,0.459-0.113
		c0.135-0.076,0.23-0.179,0.293-0.309c0.051-0.104,0.074-0.254,0.074-0.449V26.032z"/>
	<rect x="452.569" y="23.708" fill="#70706F" width="0.447" height="3.65"/>
	<rect x="334.719" y="0.009" fill="#70706F" width="46.945" height="31.296"/>
	<polygon fill="#FFFFFF" points="357.19,6.833 358.182,6.109 359.174,6.833 358.797,5.661 359.803,4.938 358.563,4.938 
		358.182,3.758 357.804,4.941 356.563,4.938 357.571,5.661 	"/>
	<polygon fill="#FFFFFF" points="352.069,8.208 353.057,7.483 354.047,8.208 353.672,7.037 354.678,6.316 353.436,6.316 
		353.057,5.131 352.676,6.316 351.438,6.316 352.44,7.037 	"/>
	<polygon fill="#FFFFFF" points="349.304,8.889 348.928,10.075 347.69,10.075 348.692,10.801 348.317,11.967 349.304,11.242 
		350.297,11.967 349.92,10.801 350.924,10.075 349.684,10.075 	"/>
	<polygon fill="#FFFFFF" points="347.929,16.362 348.918,17.087 348.545,15.92 349.547,15.196 348.309,15.196 347.929,14.011 
		347.549,15.196 346.313,15.196 347.315,15.92 346.938,17.087 	"/>
	<polygon fill="#FFFFFF" points="349.684,20.331 349.305,19.143 348.928,20.331 347.684,20.331 348.692,21.051 348.317,22.221 
		349.305,21.499 350.297,22.221 349.917,21.051 350.924,20.331 	"/>
	<polygon fill="#FFFFFF" points="353.442,24.085 353.065,22.908 352.686,24.09 351.446,24.085 352.45,24.809 352.077,25.981 
		353.065,25.256 354.053,25.981 353.676,24.809 354.684,24.085 	"/>
	<polygon fill="#FFFFFF" points="358.563,25.452 358.184,24.264 357.804,25.452 356.563,25.452 357.571,26.172 357.196,27.34 
		358.184,26.617 359.176,27.34 358.795,26.172 359.803,25.452 	"/>
	<polygon fill="#FFFFFF" points="363.682,24.085 363.304,22.908 362.926,24.09 361.686,24.085 362.69,24.809 362.315,25.981 
		363.304,25.256 364.297,25.981 363.917,24.809 364.924,24.085 	"/>
	<polygon fill="#FFFFFF" points="367.444,20.331 367.063,19.143 366.684,20.331 365.444,20.331 366.448,21.051 366.069,22.221 
		367.063,21.499 368.051,22.221 367.674,21.051 368.682,20.331 	"/>
	<polygon fill="#FFFFFF" points="370.043,15.181 368.803,15.181 368.424,13.998 368.043,15.183 366.803,15.181 367.807,15.903 
		367.434,17.07 368.424,16.348 369.415,17.07 369.036,15.903 	"/>
	<polygon fill="#FFFFFF" points="366.069,11.951 367.061,11.229 368.051,11.951 367.676,10.782 368.682,10.06 367.444,10.06 
		367.061,8.877 366.684,10.063 365.446,10.06 366.448,10.782 	"/>
	<polygon fill="#FFFFFF" points="363.319,5.131 362.94,6.316 361.7,6.316 362.704,7.041 362.327,8.208 363.319,7.483 364.309,8.208 
		363.932,7.041 364.94,6.316 363.698,6.316 	"/>
</g>
</svg>
